EVIDENCIA 2 MD A01641442
…
#VISUALIZACIÓN 1 - DISPERSIÓN.

g1 <- matches%>%
  left_join(stadiums, by= c("STADIUM" = "NAME"))

## Warning in left_join(., stadiums, by = c(STADIUM = "NAME")): Each row in `x` is expected to match at most 1 row in `y`.
## ℹ Row 4 of `x` matches multiple rows.
## ℹ If multiple matches are expected, set `multiple = "all"` to silence this
##   warning.

g1

## # A tibble: 767 × 13
##    MATCH_ID SEASON    DATE_TIME      HOME_TEAM AWAY_TEAM STADIUM HOME_TEAM_SCORE
##    <chr>    <chr>     <chr>          <chr>     <chr>     <chr>             <dbl>
##  1 mt1      2021-2022 15-SEP-21 08.… Manchest… RB Leipz… Etihad…               6
##  2 mt2      2021-2022 15-SEP-21 08.… Club Bru… Paris Sa… Jan Br…               1
##  3 mt3      2021-2022 28-SEP-21 08.… Paris Sa… Manchest… Parc d…               2
##  4 mt4      2021-2022 28-SEP-21 08.… RB Leipz… Club Bru… Red Bu…               1
##  5 mt4      2021-2022 28-SEP-21 08.… RB Leipz… Club Bru… Red Bu…               1
##  6 mt5      2021-2022 19-OCT-21 05.… Club Bru… Manchest… Jan Br…               1
##  7 mt6      2021-2022 19-OCT-21 08.… Paris Sa… RB Leipz… Parc d…               3
##  8 mt7      2021-2022 03-NOV-21 08.… RB Leipz… Paris Sa… Red Bu…               2
##  9 mt7      2021-2022 03-NOV-21 08.… RB Leipz… Paris Sa… Red Bu…               2
## 10 mt8      2021-2022 03-NOV-21 08.… Manchest… Club Bru… Etihad…               4
## # … with 757 more rows, and 6 more variables: AWAY_TEAM_SCORE <dbl>,
## #   PENALTY_SHOOT_OUT <dbl>, ATTENDANCE <dbl>, CITY <chr>, COUNTRY <chr>,
## #   CAPACITY <dbl>
…
#EL HACER UNA GRAFICA DE LINEAS, NO SE PUDO REALIZAR, DEBIDO QUE A
DIFERENCIA DE LA BASE DE DATOS NYCFLIGHTS, EN ESTA NO SE TIENEN FECHAS,
POR LO CUAL NO TENEMOS VARIABLES DE NATURALEZA SECUENCIAL.

#VISUALIZACIÓN 2 BARRAS

partidosanfield <- matches %>%
  filter(STADIUM =="Anfield")
partidosanfield

## # A tibble: 26 × 10
##    MATCH_ID SEASON    DATE_TIME      HOME_TEAM AWAY_TEAM STADIUM HOME_TEAM_SCORE
##    <chr>    <chr>     <chr>          <chr>     <chr>     <chr>             <dbl>
##  1 mt14     2021-2022 15-SEP-21 08.… Liverpoo… AC Milan  Anfield               3
##  2 mt20     2021-2022 03-NOV-21 08.… Liverpoo… Atlético… Anfield               2
##  3 mt21     2021-2022 24-NOV-21 08.… Liverpoo… FC Porto  Anfield               2
##  4 mt106    2021-2022 08-MAR-22 08.… Liverpoo… Inter     Anfield               0
##  5 mt120    2021-2022 13-APR-22 08.… Liverpoo… SL Benfi… Anfield               3
##  6 mt122    2021-2022 27-APR-22 08.… Liverpoo… Villarre… Anfield               2
##  7 mt165    2020-2021 27-OCT-20 08.… Liverpoo… FC Midtj… Anfield               2
##  8 mt169    2020-2021 25-NOV-20 08.… Liverpoo… Atalanta  Anfield               0
##  9 mt171    2020-2021 01-DEC-20 08.… Liverpoo… AFC Ajax  Anfield               1
## 10 mt245    2020-2021 14-APR-21 08.… Liverpoo… Real Mad… Anfield               0
## # … with 16 more rows, and 3 more variables: AWAY_TEAM_SCORE <dbl>,
## #   PENALTY_SHOOT_OUT <dbl>, ATTENDANCE <dbl>
…
